{
	"categories": [
	{		
		"categoryId": "101",
		"categoryName": "Polymer Academy",
		"numberOfTasks":"3"
	},
	{
		"categoryId": "102",
		"categoryName": "Java Training",
		"numberOfTasks":"2"
	},
	{
		"categoryId": "103",
		"categoryName": "Javascript Trainings",
		"numberOfTasks":"0"
	}]
}